-------------------------------------------------------------------------------
Test set: com.sample.postgress.M149.AppTest
-------------------------------------------------------------------------------
Tests run: 1, Failures: 0, Errors: 0, Skipped: 0, Time elapsed: 0.016 sec - in com.sample.postgress.M149.AppTest
