C:\Users\User\Documents\workspace-spring-tool-suite-4-4.3.2.RELEASE\M149\src\main\java\com\sample\postgress\service\DataXceiverServiceImpl.java
C:\Users\User\Documents\workspace-spring-tool-suite-4-4.3.2.RELEASE\M149\src\main\java\com\sample\postgress\dao\FS_NamesystemDao.java
C:\Users\User\Documents\workspace-spring-tool-suite-4-4.3.2.RELEASE\M149\src\main\java\com\sample\postgress\config\SecurityConfig.java
C:\Users\User\Documents\workspace-spring-tool-suite-4-4.3.2.RELEASE\M149\src\main\java\com\sample\postgress\dao\AccessDao.java
C:\Users\User\Documents\workspace-spring-tool-suite-4-4.3.2.RELEASE\M149\src\main\java\com\sample\postgress\controller\WebController.java
C:\Users\User\Documents\workspace-spring-tool-suite-4-4.3.2.RELEASE\M149\src\main\java\com\sample\postgress\bean\DataXceiver.java
C:\Users\User\Documents\workspace-spring-tool-suite-4-4.3.2.RELEASE\M149\src\main\java\com\sample\postgress\bean\Access.java
C:\Users\User\Documents\workspace-spring-tool-suite-4-4.3.2.RELEASE\M149\src\main\java\com\sample\postgress\service\FS_NamesystemServiceImpl.java
C:\Users\User\Documents\workspace-spring-tool-suite-4-4.3.2.RELEASE\M149\src\main\java\com\sample\postgress\bean\User.java
C:\Users\User\Documents\workspace-spring-tool-suite-4-4.3.2.RELEASE\M149\src\main\java\com\sample\postgress\PostgressApplication.java
C:\Users\User\Documents\workspace-spring-tool-suite-4-4.3.2.RELEASE\M149\src\main\java\com\sample\postgress\service\AccessServiceImpl.java
C:\Users\User\Documents\workspace-spring-tool-suite-4-4.3.2.RELEASE\M149\src\main\java\com\sample\postgress\mapper\DataXceiverRowMapper.java
C:\Users\User\Documents\workspace-spring-tool-suite-4-4.3.2.RELEASE\M149\src\main\java\com\sample\postgress\mapper\FS_NamesystemRowMapper.java
C:\Users\User\Documents\workspace-spring-tool-suite-4-4.3.2.RELEASE\M149\src\main\java\com\sample\postgress\service\FS_NamesystemService.java
C:\Users\User\Documents\workspace-spring-tool-suite-4-4.3.2.RELEASE\M149\src\main\java\com\sample\postgress\dao\FS_NamesystemDaoImpl.java
C:\Users\User\Documents\workspace-spring-tool-suite-4-4.3.2.RELEASE\M149\src\main\java\com\sample\postgress\mapper\AccessRowMapper.java
C:\Users\User\Documents\workspace-spring-tool-suite-4-4.3.2.RELEASE\M149\src\main\java\com\sample\postgress\service\DataXceiverService.java
C:\Users\User\Documents\workspace-spring-tool-suite-4-4.3.2.RELEASE\M149\src\main\java\com\sample\postgress\dao\DataXceiverDaoImpl.java
C:\Users\User\Documents\workspace-spring-tool-suite-4-4.3.2.RELEASE\M149\src\main\java\com\sample\postgress\service\AccessService.java
C:\Users\User\Documents\workspace-spring-tool-suite-4-4.3.2.RELEASE\M149\src\main\java\com\sample\postgress\dao\DataXceiverDao.java
C:\Users\User\Documents\workspace-spring-tool-suite-4-4.3.2.RELEASE\M149\src\main\java\com\sample\postgress\bean\FS_Namesystem.java
C:\Users\User\Documents\workspace-spring-tool-suite-4-4.3.2.RELEASE\M149\src\main\java\com\sample\postgress\dao\AccessDaoImpl.java
